Chapter 8 Preprocessing | Data Analysis in Software Engineering using R
…
kc1_tbl <- tbl_df(kc1) #deprecated

## Warning: `tbl_df()` was deprecated in dplyr 1.0.0.
## Please use `tibble::as_tibble()` instead.
## This warning is displayed once every 8 hours.
## Call `lifecycle::last_lifecycle_warnings()` to see where this warning was generated.

kc1_tbl <- tibble(kc1)

Filter:

# Filter rows: use comma or & to represent AND condition
filter(kc1_tbl, Defective == "Y" & LOC_BLANK != 0)

## # A tibble: 251 × 22
##    LOC_BLANK BRANCH_COUNT LOC_CODE_AND_COMMENT LOC_COMMENTS CYCLOMATIC_COMPLEXI…
##        <dbl>        <dbl>                <dbl>        <dbl>                <dbl>
##  1         6           21                    0           10                   11
##  2         5           15                    0            2                    8
##  3         2            5                    0            0                    3
##  4         4            5                    0            2                    3
##  5         2           11                    0            2                    6
##  6         2           23                    0            3                   12
##  7         1           11                    0            2                    6
##  8         1           13                    0            2                    7
##  9         2           17                    0            2                    9
## 10         3            1                    0            0                    1
## # … with 241 more rows, and 17 more variables: DESIGN_COMPLEXITY <dbl>,
## #   ESSENTIAL_COMPLEXITY <dbl>, LOC_EXECUTABLE <dbl>, HALSTEAD_CONTENT <dbl>,
## #   HALSTEAD_DIFFICULTY <dbl>, HALSTEAD_EFFORT <dbl>, HALSTEAD_ERROR_EST <dbl>,
## #   HALSTEAD_LENGTH <dbl>, HALSTEAD_LEVEL <dbl>, HALSTEAD_PROG_TIME <dbl>,
## #   HALSTEAD_VOLUME <dbl>, NUM_OPERANDS <dbl>, NUM_OPERATORS <dbl>,
## #   NUM_UNIQUE_OPERANDS <dbl>, NUM_UNIQUE_OPERATORS <dbl>, LOC_TOTAL <dbl>,
## #   Defective <fct>

Another operator is %in%.

Select:

select(kc1_tbl, contains("LOC"), Defective)

## # A tibble: 2,096 × 6
##    LOC_BLANK LOC_CODE_AND_COMME… LOC_COMMENTS LOC_EXECUTABLE LOC_TOTAL Defective
##        <dbl>               <dbl>        <dbl>          <dbl>     <dbl> <fct>    
##  1         0                   0            0              3         5 N        
##  2         0                   0            0              1         3 N        
##  3         0                   0            0              1         3 N        
##  4         0                   0            0              1         3 N        
##  5         2                   0            0              8        12 N        
##  6         0                   0            0              3         5 N        
##  7         0                   0            0              1         3 N        
##  8         0                   0            0              1         3 N        
##  9         0                   0            0              1         3 N        
## 10         2                   0            0              9        13 N        
## # … with 2,086 more rows

Now, kc1_tbl contains(“LOC”), Defective

Filter and Select together:

# nesting method
filter(select(kc1_tbl, contains("LOC"), Defective), Defective !=0)

## # A tibble: 2,096 × 6
##    LOC_BLANK LOC_CODE_AND_COMME… LOC_COMMENTS LOC_EXECUTABLE LOC_TOTAL Defective
##        <dbl>               <dbl>        <dbl>          <dbl>     <dbl> <fct>    
##  1         0                   0            0              3         5 N        
##  2         0                   0            0              1         3 N        
##  3         0                   0            0              1         3 N        
##  4         0                   0            0              1         3 N        
##  5         2                   0            0              8        12 N        
##  6         0                   0            0              3         5 N        
##  7         0                   0            0              1         3 N        
##  8         0                   0            0              1         3 N        
##  9         0                   0            0              1         3 N        
## 10         2                   0            0              9        13 N        
## # … with 2,086 more rows

It is easier usign the chaining method:

# chaining method
kc1_tbl %>%
    select(contains("LOC"), Defective) %>%
    filter(Defective !=0)

## # A tibble: 2,096 × 6
##    LOC_BLANK LOC_CODE_AND_COMME… LOC_COMMENTS LOC_EXECUTABLE LOC_TOTAL Defective
##        <dbl>               <dbl>        <dbl>          <dbl>     <dbl> <fct>    
##  1         0                   0            0              3         5 N        
##  2         0                   0            0              1         3 N        
##  3         0                   0            0              1         3 N        
##  4         0                   0            0              1         3 N        
##  5         2                   0            0              8        12 N        
##  6         0                   0            0              3         5 N        
##  7         0                   0            0              1         3 N        
##  8         0                   0            0              1         3 N        
##  9         0                   0            0              1         3 N        
## 10         2                   0            0              9        13 N        
## # … with 2,086 more rows

Arrange ascending

# 
kc1_tbl %>%
    select(LOC_TOTAL, Defective) %>%
    arrange(LOC_TOTAL)

## # A tibble: 2,096 × 2
##    LOC_TOTAL Defective
##        <dbl> <fct>    
##  1         1 N        
##  2         1 N        
##  3         1 N        
##  4         1 N        
##  5         1 N        
##  6         1 N        
##  7         1 N        
##  8         1 N        
##  9         1 N        
## 10         1 N        
## # … with 2,086 more rows

Arrange descending:

kc1_tbl %>%
    select(LOC_TOTAL, Defective) %>%
    arrange(desc(LOC_TOTAL))

## # A tibble: 2,096 × 2
##    LOC_TOTAL Defective
##        <dbl> <fct>    
##  1       288 Y        
##  2       286 Y        
##  3       283 N        
##  4       220 Y        
##  5       217 Y        
##  6       210 N        
##  7       205 Y        
##  8       184 Y        
##  9       179 Y        
## 10       176 Y        
## # … with 2,086 more rows

Mutate:

kc1_tbl %>%
    filter(Defective == "Y") %>%
    select(NUM_OPERANDS, NUM_OPERATORS, Defective) %>%
    mutate(HalsteadLength = NUM_OPERANDS + NUM_OPERATORS)

## # A tibble: 325 × 4
##    NUM_OPERANDS NUM_OPERATORS Defective HalsteadLength
##           <dbl>         <dbl> <fct>              <dbl>
##  1           64           107 Y                    171
##  2           52            89 Y                    141
##  3           17            41 Y                     58
##  4           41            74 Y                    115
##  5           54            95 Y                    149
##  6           75           156 Y                    231
##  7           54            95 Y                    149
##  8           56            99 Y                    155
##  9           69           124 Y                    193
## 10           44            60 Y                    104
## # … with 315 more rows
…
# randomly sample a fraction of rows, with replacement
kc1_tbl %>% sample_frac(0.05, replace=TRUE)

## # A tibble: 105 × 22
##    LOC_BLANK BRANCH_COUNT LOC_CODE_AND_COMMENT LOC_COMMENTS CYCLOMATIC_COMPLEXI…
##        <dbl>        <dbl>                <dbl>        <dbl>                <dbl>
##  1         1            3                    0            0                    2
##  2         0            1                    0            0                    1
##  3         0            1                    0            0                    1
##  4         2            5                    0            0                    3
##  5         2            7                    0            0                    4
##  6         0            1                    0            0                    1
##  7         0            1                    0            0                    1
##  8         0            1                    0            0                    1
##  9         0            1                    0            0                    1
## 10         0            1                    0            1                    1
## # … with 95 more rows, and 17 more variables: DESIGN_COMPLEXITY <dbl>,
## #   ESSENTIAL_COMPLEXITY <dbl>, LOC_EXECUTABLE <dbl>, HALSTEAD_CONTENT <dbl>,
## #   HALSTEAD_DIFFICULTY <dbl>, HALSTEAD_EFFORT <dbl>, HALSTEAD_ERROR_EST <dbl>,
## #   HALSTEAD_LENGTH <dbl>, HALSTEAD_LEVEL <dbl>, HALSTEAD_PROG_TIME <dbl>,
## #   HALSTEAD_VOLUME <dbl>, NUM_OPERANDS <dbl>, NUM_OPERATORS <dbl>,
## #   NUM_UNIQUE_OPERANDS <dbl>, NUM_UNIQUE_OPERATORS <dbl>, LOC_TOTAL <dbl>,
## #   Defective <fct>
…
